Tutorial • pigott.package
…
bees <- read_csv("../inst/extdata/bee_fxndata.csv")

## 
## -- Column specification --------------------------------------------------------
## cols(
##   Species = col_character(),
##   Mo_since_burn_grouped = col_character(),
##   Count = col_double()
## )

print(bees)

## # A tibble: 1,057 x 3
##    Species                Mo_since_burn_grouped Count
##    <chr>                  <chr>                 <dbl>
##  1 Melissodes bimaculata  11 to 15                  1
##  2 Melissodes bimaculata  11 to 15                  1
##  3 Melissodes communis    11 to 15                  1
##  4 Melissodes bimaculata  11 to 15                  1
##  5 Melissodes bimaculata  11 to 15                  1
##  6 Halictus ligatus/poeyi 11 to 15                  1
##  7 Melissodes communis    11 to 15                  1
##  8 Bombus griseocollis    11 to 15                  1
##  9 Melissodes bimaculata  11 to 15                  1
## 10 Melissodes trinodis    11 to 15                  1
## # ... with 1,047 more rows
…
